{
  "mzMLSchemaURI": "https://raw.githubusercontent.com/HUPO-PSI/mzML/master/schema/schema_1.1/mzML1.1.0.xsd",
  "mzMLIDXSchemaURI": "https://raw.githubusercontent.com/HUPO-PSI/mzML/master/schema/schema_1.1/mzML1.1.1_idx.xsd",
  "imzMLSchemaURI": "https://raw.githubusercontent.com/imzML/imzML/development/imzML1.1.1.xsd",
  "imzMLAllSchemaURI": "https://raw.githubusercontent.com/imzML/imzML/development/imzML_all1.1.1.xsd",
  "downloadLatestSchemasOnStart": false,
  "mappingURIs": [
    "https://raw.githubusercontent.com/HUPO-PSI/mzML/master/validator/src/main/resources/ms-mapping.xml",
    "https://raw.githubusercontent.com/imzML/imzML/development/Ims1.1-mapping.xml",
    "https://raw.githubusercontent.com/imzML/imzML/development/sourceFile-may-mapping.xml"
  ],
  "conditionalMappingURIs": [
    "https://raw.githubusercontent.com/imzML/imzML/development/MSIMinimumReporting.xml",
    "https://raw.githubusercontent.com/imzML/imzML/development/Roempp_Bacteria.xml",
    "https://raw.githubusercontent.com/imzML/imzML/development/Roempp_Fish.xml",
    "https://raw.githubusercontent.com/imzML/imzML/development/Roempp_Food.xml"
  ],
  "downloadLatestMappingFilesOnStart": false,
  "msOBOURI": "https://raw.githubusercontent.com/HUPO-PSI/psi-ms-CV/master/psi-ms.obo",
  "imsOBOURI": "https://raw.githubusercontent.com/imzML/imzML/development/imagingMS.obo",
  "downloadLatestOBOsOnStart": true,
  "useInternalMappingFiles": true,
  "mappingFiles": [],
  "conditionalMappingFiles": [],
  "skipDataIntegrityCheck": false,
  "reportEntries": [
    { "xPath": "/mzML/scanSettingsList/scanSettings", "cvParam": "IMS:1000042" },
    { "xPath": "/mzML/scanSettingsList/scanSettings", "cvParam": "IMS:1000043" },
    { "xPath": "/mzML/referenceableParamGroupList/referenceableParamGroup", "cvParam": "MS:1000518"}
  ]
}